{
    "KPlugin": {
        "Description": "Controls DPMS settings",
        "Description[ar]": "تتحكم بإعدادات DPMS",
        "Description[be]": "Налады кіравання DPMS",
        "Description[bg]": "Контролира настройките на DPMS",
        "Description[ca@valencia]": "Controla la configuració de DPMS",
        "Description[ca]": "Controla la configuració del DPMS",
        "Description[cs]": "Ovládání nastavení DPMS",
        "Description[de]": "DPMS-Einstellungen",
        "Description[en_GB]": "Controls DPMS settings",
        "Description[eo]": "Kontrolas DPMS-agordojn",
        "Description[es]": "Controla las preferencias de DPMS",
        "Description[eu]": "DPMS ezarpenak kontrolatzen ditu",
        "Description[fi]": "Hallitsee virranhallinta-asetuksia",
        "Description[fr]": "Contrôle les paramètres « DPMS »",
        "Description[gl]": "Controla a configuración do DPMS",
        "Description[ia]": "Preferentias de controlos DPMS",
        "Description[it]": "Impostazioni dei controlli DPMS",
        "Description[ka]": "DPMS-ის პარამეტრების მორგება",
        "Description[ko]": "DPMS 설정",
        "Description[lt]": "Valdo DPMS nuostatas",
        "Description[nl]": "DPMS-instellingen besturen",
        "Description[nn]": "Kontrollerer DPMS-innstillingar",
        "Description[pa]": "DPMS ਸੈਟਿੰਗਾਂ ਕੰਟਰੋਲ ਕਰੋ",
        "Description[pl]": "Steruje ustawieniami DPMS",
        "Description[pt]": "Controla as definições do DPMS",
        "Description[pt_BR]": "Controla as configurações do DPMS",
        "Description[ru]": "Управление настройками энергопотребления монитора",
        "Description[sl]": "Nadzira nastavitve upravljanja z energijo zaslona",
        "Description[sv]": "Styr DPMS-inställningar",
        "Description[ta]": "DPMS அமைப்புகளை கட்டுப்படுத்தும்",
        "Description[tr]": "DPMS (Görüntü Güç Yönetimi Ayarları) ayarlarını denetler",
        "Description[uk]": "Керування параметрами DPMS",
        "Description[x-test]": "xxControls DPMS settingsxx",
        "Description[zh_CN]": "控制屏幕电源管理设置",
        "Description[zh_TW]": "控制 DPMS 設定",
        "Icon": "preferences-desktop-screensaver",
        "Name": "Screen Energy Saving",
        "Name[ar]": "حِفظ طاقة الشاشة",
        "Name[az]": "Ekranın enerji qənaəti",
        "Name[be]": "Энергазберагальны рэжым экрана",
        "Name[bg]": "Енергоспестяване на екрана",
        "Name[bs]": "Štednja energije ekrana",
        "Name[ca@valencia]": "Estalvi d'energia de la pantalla",
        "Name[ca]": "Estalvi d'energia de la pantalla",
        "Name[cs]": "Úsporný režim obrazovky",
        "Name[da]": "Strømbesparelse for skærm",
        "Name[de]": "Bildschirm-Energieverwaltung",
        "Name[el]": "Εξοικονόμηση ενέργειας οθόνης",
        "Name[en_GB]": "Screen Energy Saving",
        "Name[eo]": "Ekrana Energio-Ŝparo",
        "Name[es]": "Ahorro de energía de la pantalla",
        "Name[et]": "Ekraanisäästja",
        "Name[eu]": "Pantaila-energia aurreztea",
        "Name[fi]": "Näytön virransäästö",
        "Name[fr]": "Économie d'énergie pour l'écran",
        "Name[gl]": "Aforro enerxético da pantalla",
        "Name[he]": "חיסון באנרגיית מסך",
        "Name[hu]": "Kijelző kikapcsolása",
        "Name[ia]": "Sparnio de energia de schermo",
        "Name[id]": "Layar Hemat Energi",
        "Name[it]": "Risparmio energetico dello schermo",
        "Name[ja]": "スクリーンの節電",
        "Name[ka]": "ეკრანის ენერგიი შენახვა",
        "Name[ko]": "화면 에너지 절약",
        "Name[lt]": "Ekrano energijos taupymas",
        "Name[nb]": "Strømsparing for skjerm",
        "Name[nds]": "Monitor-Stroomspoorbedrief",
        "Name[nl]": "Energiebesparing bij het beeldscherm",
        "Name[nn]": "Straumsparing for skjerm",
        "Name[pa]": "ਸਕਰੀਨ ਊਰਜਾ ਬਚਾਉਣੀ",
        "Name[pl]": "Oszczędzaj energię ekranu",
        "Name[pt]": "Poupança de Energia do Ecrã",
        "Name[pt_BR]": "Configurações da energia da tela",
        "Name[ro]": "Economisire energie ecran",
        "Name[ru]": "Энергосбережение монитора",
        "Name[sk]": "Šetrenie energie obrazovky",
        "Name[sl]": "Varčevanje z energijo zaslona",
        "Name[sr@ijekavian]": "Штедња енергије екрана",
        "Name[sr@ijekavianlatin]": "Štednja energije ekrana",
        "Name[sr@latin]": "Štednja energije ekrana",
        "Name[sr]": "Штедња енергије екрана",
        "Name[sv]": "Strömsparhantering av bildskärmen",
        "Name[ta]": "திரை ஆற்றல் சேமிப்பு",
        "Name[tg]": "Сарфаи барқи экран",
        "Name[tr]": "Ekrandan enerji tasarrufu yap",
        "Name[uk]": "Заощадження енергії екраном",
        "Name[x-test]": "xxScreen Energy Savingxx",
        "Name[zh_CN]": "屏幕节能",
        "Name[zh_TW]": "螢幕節能"
    },
    "X-KDE-PowerDevil-Action-ConfigPriority": 98,
    "X-KDE-PowerDevil-Action-ForceInstantLoad": true,
    "X-KDE-PowerDevil-Action-HasRuntimeRequirement": true,
    "X-KDE-PowerDevil-Action-ID": "DPMSControl"
}
